{
    "registrar": [
        {
            "language": "php",
            "provider": "laravel_config",
            "signature": [
                "Illuminate\\Config\\Repository::get",
                "Illuminate\\Contracts\\Config\\Repository::get",
                "Config::get",
                "config"
            ]
        }
    ],
    "providers": [
        {
            "name": "laravel_config",
            "lookup_strings": [
                "app.name",
                "app.env",
                "app.debug",
                "app.url",
                "app.asset_url",
                "app.timezone",
                "app.locale",
                "app.fallback_locale",
                "app.faker_locale",
                "app.key",
                "app.cipher",
                "app.providers",
                "app.aliases.App",
                "app.aliases.Artisan",
                "app.aliases.Auth",
                "app.aliases.Blade",
                "app.aliases.Broadcast",
                "app.aliases.Bus",
                "app.aliases.Cache",
                "app.aliases.Config",
                "app.aliases.Cookie",
                "app.aliases.Crypt",
                "app.aliases.DB",
                "app.aliases.Eloquent",
                "app.aliases.Event",
                "app.aliases.File",
                "app.aliases.Gate",
                "app.aliases.Hash",
                "app.aliases.Lang",
                "app.aliases.Log",
                "app.aliases.Mail",
                "app.aliases.Notification",
                "app.aliases.Password",
                "app.aliases.Queue",
                "app.aliases.Redirect",
                "app.aliases.Redis",
                "app.aliases.Request",
                "app.aliases.Response",
                "app.aliases.Route",
                "app.aliases.Schema",
                "app.aliases.Session",
                "app.aliases.Storage",
                "app.aliases.URL",
                "app.aliases.Validator",
                "app.aliases.View",
                "auth.defaults.guard",
                "auth.defaults.passwords",
                "auth.guards.web.driver",
                "auth.guards.web.provider",
                "auth.guards.api.driver",
                "auth.guards.api.provider",
                "auth.providers.users.driver",
                "auth.providers.users.model",
                "auth.passwords.users.provider",
                "auth.passwords.users.table",
                "auth.passwords.users.expire",
                "broadcasting.default",
                "broadcasting.connections.pusher.driver",
                "broadcasting.connections.pusher.key",
                "broadcasting.connections.pusher.secret",
                "broadcasting.connections.pusher.app_id",
                "broadcasting.connections.pusher.options.cluster",
                "broadcasting.connections.pusher.options.encrypted",
                "broadcasting.connections.redis.driver",
                "broadcasting.connections.redis.connection",
                "broadcasting.connections.log.driver",
                "broadcasting.connections.null.driver",
                "cache.default",
                "cache.stores.apc.driver",
                "cache.stores.array.driver",
                "cache.stores.database.driver",
                "cache.stores.database.table",
                "cache.stores.database.connection",
                "cache.stores.file.driver",
                "cache.stores.file.path",
                "cache.stores.memcached.driver",
                "cache.stores.memcached.persistent_id",
                "cache.stores.memcached.sasl",
                "cache.stores.memcached.options",
                "cache.stores.memcached.servers.0.host",
                "cache.stores.memcached.servers.0.port",
                "cache.stores.memcached.servers.0.weight",
                "cache.stores.redis.driver",
                "cache.stores.redis.connection",
                "cache.prefix",
                "database.default",
                "database.connections.sqlite.driver",
                "database.connections.sqlite.database",
                "database.connections.sqlite.prefix",
                "database.connections.sqlite.foreign_key_constraints",
                "database.connections.mysql.driver",
                "database.connections.mysql.host",
                "database.connections.mysql.port",
                "database.connections.mysql.database",
                "database.connections.mysql.username",
                "database.connections.mysql.password",
                "database.connections.mysql.unix_socket",
                "database.connections.mysql.charset",
                "database.connections.mysql.collation",
                "database.connections.mysql.prefix",
                "database.connections.mysql.prefix_indexes",
                "database.connections.mysql.strict",
                "database.connections.mysql.engine",
                "database.connections.pgsql.driver",
                "database.connections.pgsql.host",
                "database.connections.pgsql.port",
                "database.connections.pgsql.database",
                "database.connections.pgsql.username",
                "database.connections.pgsql.password",
                "database.connections.pgsql.charset",
                "database.connections.pgsql.prefix",
                "database.connections.pgsql.prefix_indexes",
                "database.connections.pgsql.schema",
                "database.connections.pgsql.sslmode",
                "database.connections.sqlsrv.driver",
                "database.connections.sqlsrv.host",
                "database.connections.sqlsrv.port",
                "database.connections.sqlsrv.database",
                "database.connections.sqlsrv.username",
                "database.connections.sqlsrv.password",
                "database.connections.sqlsrv.charset",
                "database.connections.sqlsrv.prefix",
                "database.connections.sqlsrv.prefix_indexes",
                "database.migrations",
                "database.redis.client",
                "database.redis.default.host",
                "database.redis.default.password",
                "database.redis.default.port",
                "database.redis.default.database",
                "database.redis.cache.host",
                "database.redis.cache.password",
                "database.redis.cache.port",
                "database.redis.cache.database",
                "filesystems.default",
                "filesystems.cloud",
                "filesystems.disks.local.driver",
                "filesystems.disks.local.root",
                "filesystems.disks.public.driver",
                "filesystems.disks.public.root",
                "filesystems.disks.public.url",
                "filesystems.disks.public.visibility",
                "filesystems.disks.s3.driver",
                "filesystems.disks.s3.key",
                "filesystems.disks.s3.secret",
                "filesystems.disks.s3.region",
                "filesystems.disks.s3.bucket",
                "filesystems.disks.s3.url",
                "hashing.driver",
                "hashing.bcrypt.rounds",
                "hashing.argon.memory",
                "hashing.argon.threads",
                "hashing.argon.time",
                "ide-helper.filename",
                "ide-helper.format",
                "ide-helper.meta_filename",
                "ide-helper.include_fluent",
                "ide-helper.write_model_magic_where",
                "ide-helper.include_helpers",
                "ide-helper.helper_files",
                "ide-helper.model_locations",
                "ide-helper.extra.Eloquent",
                "ide-helper.extra.Session",
                "ide-helper.magic.Log.debug",
                "ide-helper.magic.Log.info",
                "ide-helper.magic.Log.notice",
                "ide-helper.magic.Log.warning",
                "ide-helper.magic.Log.error",
                "ide-helper.magic.Log.critical",
                "ide-helper.magic.Log.alert",
                "ide-helper.magic.Log.emergency",
                "ide-helper.interfaces",
                "ide-helper.custom_db_types",
                "ide-helper.model_camel_case_properties",
                "ide-helper.type_overrides.integer",
                "ide-helper.type_overrides.boolean",
                "logging.default",
                "logging.channels.stack.driver",
                "logging.channels.stack.channels",
                "logging.channels.single.driver",
                "logging.channels.single.path",
                "logging.channels.single.level",
                "logging.channels.daily.driver",
                "logging.channels.daily.path",
                "logging.channels.daily.level",
                "logging.channels.daily.days",
                "logging.channels.slack.driver",
                "logging.channels.slack.url",
                "logging.channels.slack.username",
                "logging.channels.slack.emoji",
                "logging.channels.slack.level",
                "logging.channels.papertrail.driver",
                "logging.channels.papertrail.level",
                "logging.channels.papertrail.handler",
                "logging.channels.papertrail.handler_with.host",
                "logging.channels.papertrail.handler_with.port",
                "logging.channels.stderr.driver",
                "logging.channels.stderr.handler",
                "logging.channels.stderr.with.stream",
                "logging.channels.syslog.driver",
                "logging.channels.syslog.level",
                "logging.channels.errorlog.driver",
                "logging.channels.errorlog.level",
                "mail.driver",
                "mail.host",
                "mail.port",
                "mail.from.address",
                "mail.from.name",
                "mail.encryption",
                "mail.username",
                "mail.password",
                "mail.sendmail",
                "mail.markdown.theme",
                "mail.markdown.paths",
                "mail.log_channel",
                "queue.default",
                "queue.connections.sync.driver",
                "queue.connections.database.driver",
                "queue.connections.database.table",
                "queue.connections.database.queue",
                "queue.connections.database.retry_after",
                "queue.connections.beanstalkd.driver",
                "queue.connections.beanstalkd.host",
                "queue.connections.beanstalkd.queue",
                "queue.connections.beanstalkd.retry_after",
                "queue.connections.sqs.driver",
                "queue.connections.sqs.key",
                "queue.connections.sqs.secret",
                "queue.connections.sqs.prefix",
                "queue.connections.sqs.queue",
                "queue.connections.sqs.region",
                "queue.connections.redis.driver",
                "queue.connections.redis.connection",
                "queue.connections.redis.queue",
                "queue.connections.redis.retry_after",
                "queue.connections.redis.block_for",
                "queue.failed.database",
                "queue.failed.table",
                "services.mailgun.domain",
                "services.mailgun.secret",
                "services.mailgun.endpoint",
                "services.ses.key",
                "services.ses.secret",
                "services.ses.region",
                "services.sparkpost.secret",
                "services.stripe.model",
                "services.stripe.key",
                "services.stripe.secret",
                "services.stripe.webhook.secret",
                "services.stripe.webhook.tolerance",
                "session.driver",
                "session.lifetime",
                "session.expire_on_close",
                "session.encrypt",
                "session.files",
                "session.connection",
                "session.table",
                "session.store",
                "session.lottery",
                "session.cookie",
                "session.path",
                "session.domain",
                "session.secure",
                "session.http_only",
                "session.same_site",
                "view.paths",
                "view.compiled",
                "cors.supportsCredentials",
                "cors.allowedOrigins",
                "cors.allowedOriginsPatterns",
                "cors.allowedHeaders",
                "cors.allowedMethods",
                "cors.exposedHeaders",
                "cors.maxAge",
                "debug-server.host",
                "codex.display_name",
                "codex.description",
                "codex.default_project",
                "codex.addons",
                "codex.paths.docs",
                "codex.projects.casts.meta",
                "codex.projects.casts.layout",
                "codex.projects.casts.processors",
                "codex.projects.casts.revision",
                "codex.projects.casts.document",
                "codex.projects.defaults.meta.icon",
                "codex.projects.defaults.meta.color",
                "codex.projects.defaults.meta.authors",
                "codex.projects.defaults.meta.license",
                "codex.projects.defaults.meta.links.Git",
                "codex.projects.defaults.meta.links.Issues",
                "codex.projects.defaults.meta.links.Package",
                "codex.projects.defaults.meta.stylesheets",
                "codex.projects.defaults.meta.javascripts",
                "codex.projects.defaults.meta.styles",
                "codex.projects.defaults.meta.scripts",
                "codex.projects.defaults.disk",
                "codex.projects.defaults.display_name",
                "codex.projects.defaults.description",
                "codex.projects.defaults.processors.enabled",
                "codex.projects.defaults.processors.disabled",
                "codex.projects.defaults.revision.default",
                "codex.projects.defaults.revision.allow_php_config",
                "codex.projects.defaults.revision.allowed_config_files",
                "codex.projects.defaults.document.default",
                "codex.projects.defaults.document.extensions",
                "codex.projects.defaults.document.view",
                "codex.projects.defaults.document.cache.mode",
                "codex.projects.defaults.document.cache.minutes",
                "codex.projects.inherits",
                "codex.revisions.casts",
                "codex.revisions.inherits",
                "codex.revisions.defaults",
                "codex.documents.casts",
                "codex.documents.inherits",
                "codex.documents.defaults.title",
                "codex.documents.defaults.subtitle",
                "codex.documents.defaults.description",
                "codex.documents.defaults.cache",
                "codex.layout.header.color",
                "codex.layout.header.show",
                "codex.layout.header.static",
                "codex.layout.header.class.c-header",
                "codex.layout.header.style",
                "codex.layout.header.menu",
                "codex.layout.header.title",
                "codex.layout.header.revealOnScroll",
                "codex.layout.header.showTitle",
                "codex.layout.header.showLeftToggle",
                "codex.layout.header.showRightToggle",
                "codex.layout.left.show",
                "codex.layout.left.static",
                "codex.layout.left.below_header",
                "codex.layout.left.aboveFooter",
                "codex.layout.left.class.c-left",
                "codex.layout.left.style",
                "codex.layout.left.menu",
                "codex.layout.right.belowHeader",
                "codex.layout.right.aboveFooter",
                "codex.layout.right.class.c-right",
                "codex.layout.right.show",
                "codex.layout.right.static",
                "codex.layout.right.style",
                "codex.layout.right.menu",
                "codex.layout.page.class.c-page",
                "codex.layout.page.style.padding",
                "codex.layout.page.style.background",
                "codex.layout.footer.color",
                "codex.layout.footer.class.c-footer",
                "codex.layout.footer.show",
                "codex.layout.footer.static",
                "codex.layout.footer.style",
                "codex.layout.footer.menu",
                "codex.processors.attributes.tags.0.open",
                "codex.processors.attributes.tags.0.close",
                "codex.processors.attributes.tags.1.open",
                "codex.processors.attributes.tags.1.close",
                "codex.processors.attributes.remove_tags",
                "codex.processors.attributes.add_extra_data",
                "codex.processors.buttons.buttons",
                "codex.processors.buttons.default_button_attributes.color",
                "codex.processors.buttons.default_button_attributes.href",
                "codex.processors.buttons.default_button_attributes.class",
                "codex.processors.buttons.default_button_attributes.target",
                "codex.processors.buttons.view",
                "codex.processors.header.view",
                "codex.processors.header.remove_from_document",
                "codex.processors.header.remove_regex",
                "codex.processors.links.prefix",
                "codex.processors.links.actions",
                "codex.processors.macro.macros.table:responsive",
                "codex.processors.macro.macros.layout:row",
                "codex.processors.macro.macros.layout:column",
                "codex.processors.macro.macros.general:hide",
                "codex.processors.macro.macros.attribute:print",
                "codex.processors.macro.macros.phpdoc:method:signature",
                "codex.processors.macro.macros.phpdoc:method",
                "codex.processors.macro.macros.phpdoc:entity",
                "codex.processors.macro.macros.phpdoc:list:method",
                "codex.processors.macro.macros.phpdoc:list:property",
                "codex.processors.parser.parser",
                "codex.processors.parser.markdown.renderer",
                "codex.processors.parser.markdown.html5",
                "codex.processors.parser.markdown.table.class",
                "codex.processors.parser.markdown.code.line_numbers",
                "codex.processors.parser.markdown.code.command_line",
                "codex.processors.parser.markdown.code.loader",
                "codex.processors.parser.rst",
                "codex.processors.toc.disable",
                "codex.processors.toc.regex",
                "codex.processors.toc.list_class",
                "codex.processors.toc.header_link_class",
                "codex.processors.toc.header_link_show",
                "codex.processors.toc.header_link_text",
                "codex.processors.toc.minimum_nodes",
                "codex.processors.toc.view",
                "trustedproxy.proxies",
                "trustedproxy.headers",
                "flysystem.default",
                "flysystem.connections.awss3.driver",
                "flysystem.connections.awss3.key",
                "flysystem.connections.awss3.secret",
                "flysystem.connections.awss3.bucket",
                "flysystem.connections.awss3.region",
                "flysystem.connections.awss3.version",
                "flysystem.connections.azure.driver",
                "flysystem.connections.azure.account-name",
                "flysystem.connections.azure.api-key",
                "flysystem.connections.azure.container",
                "flysystem.connections.dropbox.driver",
                "flysystem.connections.dropbox.token",
                "flysystem.connections.ftp.driver",
                "flysystem.connections.ftp.host",
                "flysystem.connections.ftp.port",
                "flysystem.connections.ftp.username",
                "flysystem.connections.ftp.password",
                "flysystem.connections.gridfs.driver",
                "flysystem.connections.gridfs.server",
                "flysystem.connections.gridfs.database",
                "flysystem.connections.local.driver",
                "flysystem.connections.local.path",
                "flysystem.connections.null.driver",
                "flysystem.connections.rackspace.driver",
                "flysystem.connections.rackspace.endpoint",
                "flysystem.connections.rackspace.region",
                "flysystem.connections.rackspace.username",
                "flysystem.connections.rackspace.apiKey",
                "flysystem.connections.rackspace.container",
                "flysystem.connections.replicate.driver",
                "flysystem.connections.replicate.source",
                "flysystem.connections.replicate.replica",
                "flysystem.connections.sftp.driver",
                "flysystem.connections.sftp.host",
                "flysystem.connections.sftp.port",
                "flysystem.connections.sftp.username",
                "flysystem.connections.sftp.password",
                "flysystem.connections.webdav.driver",
                "flysystem.connections.webdav.baseUri",
                "flysystem.connections.webdav.userName",
                "flysystem.connections.webdav.password",
                "flysystem.connections.zip.driver",
                "flysystem.connections.zip.path",
                "flysystem.cache.foo.driver",
                "flysystem.cache.foo.connector",
                "flysystem.cache.foo.key",
                "flysystem.cache.bar.driver",
                "flysystem.cache.bar.connector",
                "flysystem.cache.bar.key",
                "flysystem.cache.bar.ttl",
                "flysystem.cache.adapter.driver",
                "flysystem.cache.adapter.adapter",
                "flysystem.cache.adapter.file",
                "flysystem.cache.adapter.ttl",
                "lighthouse.route_name",
                "lighthouse.route_enable_get",
                "lighthouse.route.prefix",
                "lighthouse.schema.register",
                "lighthouse.cache.enable",
                "lighthouse.cache.key",
                "lighthouse.directives",
                "lighthouse.namespaces.models",
                "lighthouse.namespaces.mutations",
                "lighthouse.namespaces.queries",
                "lighthouse.namespaces.scalars",
                "lighthouse.security.max_query_complexity",
                "lighthouse.security.max_query_depth",
                "lighthouse.security.disable_introspection",
                "lighthouse.debug",
                "lighthouse.error_handlers",
                "lighthouse.extensions",
                "lighthouse.controller",
                "lighthouse.global_id_field",
                "lighthouse.batched_queries",
                "lighthouse-utils.schema_paths.mutations",
                "lighthouse-utils.schema_paths.queries",
                "lighthouse-utils.schema_paths.types",
                "lighthouse-utils.authorization",
                "codex-api",
                "tinker.commands",
                "tinker.dont_alias"
            ]
        }
    ]
}